\relax 
\providecommand\hyper@newdestlabel[2]{}
\providecommand\babel@aux[2]{}
\@nameuse{bbl@beforestart}
\providecommand\HyperFirstAtBeginDocument{\AtBeginDocument}
\HyperFirstAtBeginDocument{\ifx\hyper@anchor\@undefined
\global\let\oldcontentsline\contentsline
\gdef\contentsline#1#2#3#4{\oldcontentsline{#1}{#2}{#3}}
\global\let\oldnewlabel\newlabel
\gdef\newlabel#1#2{\newlabelxx{#1}#2}
\gdef\newlabelxx#1#2#3#4#5#6{\oldnewlabel{#1}{{#2}{#3}}}
\AtEndDocument{\ifx\hyper@anchor\@undefined
\let\contentsline\oldcontentsline
\let\newlabel\oldnewlabel
\fi}
\fi}
\global\let\hyper@last\relax 
\gdef\HyperFirstAtBeginDocument#1{#1}
\providecommand*\HyPL@Entry[1]{}
\providecommand*\new@tpo@label[2]{}
\HyPL@Entry{0<</S/D>>}
\babel@aux{english}{}
\@writefile{toc}{\contentsline {section}{Εισαγωγή}{2}{Doc-Start}\protected@file@percent }
\@writefile{toc}{\contentsline {subsection}{Τεχνικές Λεπτομέρειες}{2}{section*.1}\protected@file@percent }
\@writefile{toc}{\contentsline {subsubsection}{Συγγραφή}{2}{section*.1}\protected@file@percent }
\@writefile{toc}{\contentsline {subsection}{Εξηγήσεις για τον φάκελο παραδοτέου}{2}{section*.1}\protected@file@percent }
\@writefile{toc}{\contentsline {subsection}{Αποθετήριο της εργασίας}{2}{section*.1}\protected@file@percent }
\@writefile{toc}{\contentsline {section}{\numberline {1}Ερώτημα 1}{3}{section.1}\protected@file@percent }
\@writefile{toc}{\contentsline {subsection}{\numberline {1.1}Πώς επιλέγουμε μεθοδολογία;}{3}{subsection.1.1}\protected@file@percent }
\@writefile{toc}{\contentsline {subsection}{\numberline {1.2}Οι μεθοδολογίες που απορρίψαμε}{3}{subsection.1.2}\protected@file@percent }
\@writefile{toc}{\contentsline {subsection}{\numberline {1.3}Η μεθοδολογία που επιλέξαμε}{4}{subsection.1.3}\protected@file@percent }
\@writefile{toc}{\contentsline {subsubsection}{\numberline {1.3.1}Θεωρητικό υπόβαθρο και φιλοσοφία της μεθοδολογίας }{4}{subsubsection.1.3.1}\protected@file@percent }
\@writefile{toc}{\contentsline {subsubsection}{\numberline {1.3.2}Πλεονεκτήματα της μεθοδολογίας}{5}{subsubsection.1.3.2}\protected@file@percent }
\@writefile{toc}{\contentsline {subsubsection}{\numberline {1.3.3}Λόγοι για τους οποίους επιλέξαμε τη συγκεκριμένη μεθοδολογία}{6}{subsubsection.1.3.3}\protected@file@percent }
\@writefile{toc}{\contentsline {subsubsection}{\numberline {1.3.4}Ρίσκα της μεθοδολογίας και τρόποι αντιμετώπισης}{7}{subsubsection.1.3.4}\protected@file@percent }
\@writefile{toc}{\contentsline {section}{\numberline {2}Ερώτημα 2}{8}{section.2}\protected@file@percent }
\@writefile{toc}{\contentsline {subsection}{\numberline {2.1}Περιγραφή του φυσικού αντικειμένου}{8}{subsection.2.1}\protected@file@percent }
\newlabel{tab:table1}{{2.1}{11}{Περιγραφή του φυσικού αντικειμένου}{subsection.2.1}{}}
\@writefile{toc}{\contentsline {subsection}{\numberline {2.2}Χρονικός προγραμματισμός, προγραμματισμός των πόρων και προϋπολογισμός του έργου μέσω του MS Project}{13}{subsection.2.2}\protected@file@percent }
\@writefile{toc}{\contentsline {subsubsection}{\numberline {2.2.1}Χρονοπρογραμματισμός}{13}{subsubsection.2.2.1}\protected@file@percent }
\@writefile{toc}{\contentsline {subsubsection}{\numberline {2.2.2}Προγραμματισμός πόρων}{16}{subsubsection.2.2.2}\protected@file@percent }
\@writefile{toc}{\contentsline {subsubsection}{\numberline {2.2.3}Προϋπολογισμός}{20}{subsubsection.2.2.3}\protected@file@percent }
\@writefile{toc}{\contentsline {subsection}{\numberline {2.3}Αναπαράσταση με WBS}{21}{subsection.2.3}\protected@file@percent }
\@writefile{toc}{\contentsline {section}{\numberline {3}Ερώτημα 3}{21}{section.3}\protected@file@percent }
\@writefile{toc}{\contentsline {subsection}{\numberline {3.1}Zachman Framework}{21}{subsection.3.1}\protected@file@percent }
\gdef\svg@ink@ver@settings{{\m@ne }{inkscape}{1}}
\gdef \@abspage@last{25}
